<svg width="32" height="12" viewBox="0 0 32 12" fill="none" xmlns="http://www.w3.org/2000/svg">
<path d="M7.104 6.068L10.576 8.028L9.932 9.204L6.432 7.16V11.136H5.144L5.172 7.16L1.672 9.204L1 8.028L4.5 6.068L1 4.108L1.672 2.904L5.172 4.976L5.144 1H6.432V4.976L9.932 2.904L10.576 4.108L7.104 6.068Z" fill="#ED1E1E"/>
</svg>
